{
  "name": "cornell-notes",
  "resourcetypes": [
    {
      "name": "CornellNotes",
      "dependent": false,
      "description": "A set of notes in the Cornell style, with keywords down the left-hand side of the page, a wider column of matching explanatory text down the right-hand/main section, and a summary section at the bottom.",
      "attributes": [
        {
          "name": "summary",
          "description": "Summary notes, questions or actions to follow up, stuff that needs clarifying, etc.",
          "type": "text"
        }
      ]
    },
    {
      "name": "CornellSubNotes",
      "dependent": true,
      "description": "The UID is the keyword/key-phrase, and the notes section is the explanatory notes. Or the UID is a date/time, and the notes section records what happened. Or whatever. These are dependent sub-elements of CornellNotes resources.",
      "attributes": [
        {
          "name": "title",
          "description": "Because UIDs have to be ASCII, and I don't only work in English.",
          "type": "varchar",
          "maxlength": 256
        },
        {
          "name": "explanatorytext",
          "description": "Explains or clarifies the keyword, records what happened, etc.",
          "type": "text"
        }
      ]
    }
  ],
  "relationships": [
    {
      "name": "INCORPORATES_SUBNOTE",
      "source-types": ["CornellNotes"],
      "target-types": ["CornellSubNotes"],
      "cardinality": "1:many",
      "reltype": "dependent",
      "notes": "This Cornell Notes resource contains those sub-notes."
    },
    {
      "name": "INCORPORATED_BY_NOTE",
      "source-types": ["CornellSubNotes"],
      "target-types": ["CornellNotes"],
      "cardinality": "many:1",
      "reltype": "any",
      "notes": "This subnote is part of that Cornell note."
    },
    {
      "name": "RELATES_TO",
      "source-types": ["CornellSubNotes"],
      "target-types": ["CornellSubNotes"],
      "cardinality": "many:many",
      "reltype": "any",
      "notes": "These subnotes relate to each other. Somehow."
    },
    {
      "name": "SOURCE_OF",
      "source-types": ["Books"],
      "target-types": ["CornellNotes"],
      "cardinality": "1:many",
      "reltype": "any",
      "notes": "Those Cornell Notes are based on the contents of this book."
    },
    {
      "name": "DERIVED_FROM",
      "source-types": ["CornellNotes"],
      "target-types": ["Books"],
      "cardinality": "many:1",
      "reltype": "any",
      "notes": "The contents of that book are the source of this page of notes."
    },
    {
      "name": "SOURCE_OF",
      "source-types": ["Files"],
      "target-types": ["CornellNotes"],
      "cardinality": "1:many",
      "reltype": "any",
      "notes": "Those Cornell Notes are based on the contents of this file."
    },
    {
      "name": "DERIVED_FROM",
      "source-types": ["CornellNotes"],
      "target-types": ["Files"],
      "cardinality": "many:1",
      "reltype": "any",
      "notes": "The contents of that file are the source of this page of notes."
    }
  ]
}
